<svg width="100%" height="100%" viewBox="0 0 44 44" fill="none" xmlns="http://www.w3.org/2000/svg">
<g clip-path="url(#clip0)">
<path d="M33.5165 25.4921C32.9359 24.2443 31.8621 23.2342 30.2949 22.4624C32.6488 21.8642 33.99 20.2475 34.3194 17.6124C34.446 16.6585 34.3713 15.7899 34.0947 15.0054C33.8179 14.2207 33.3595 13.5364 32.7173 12.9518C32.0759 12.3668 31.3472 11.867 30.5336 11.4519C29.7197 11.0368 28.7644 10.6528 27.6681 10.3003L28.8808 4.94765L25.6101 4.20659L24.431 9.41055C23.8646 9.28223 22.9977 9.10066 21.8302 8.86595L23.0189 3.61951L19.7477 2.87835L18.535 8.23103C18.0643 8.13934 17.376 7.99097 16.4698 7.78565L11.9717 6.74399L11.1824 10.2275L13.54 10.7617C14.6162 11.0055 15.1372 11.6299 15.1031 12.6343L13.7219 18.7305C13.8637 18.7627 13.9752 18.7956 14.0571 18.829L13.7171 18.752L11.7825 27.2904C11.5058 27.9868 11.0133 28.2551 10.3052 28.0946L7.94781 27.5605L6.40854 31.2985L10.6567 32.261C10.9258 32.3219 11.3142 32.4137 11.8227 32.5356C12.3308 32.6582 12.7122 32.7484 12.9671 32.8062L11.7399 38.2225L15.0117 38.9637L16.2244 33.6111C16.8157 33.7604 17.6779 33.963 18.8107 34.2196L17.6028 39.5508L20.8737 40.2919L22.1009 34.8756C23.2751 35.0822 24.3291 35.2099 25.2633 35.2573C26.1979 35.3047 27.1137 35.2558 28.0102 35.1088C28.9066 34.9623 29.6872 34.7034 30.3517 34.3329C31.0163 33.9629 31.6154 33.4358 32.1504 32.753C32.6842 32.0699 33.1152 31.2371 33.4418 30.2538C34.0725 28.3279 34.0971 26.7404 33.5165 25.4921ZM21.0277 12.7032C21.1269 12.7256 21.4074 12.7854 21.8692 12.8825C22.3313 12.9796 22.715 13.0592 23.0211 13.121C23.3272 13.183 23.7338 13.2938 24.2413 13.4534C24.7485 13.613 25.171 13.7684 25.5089 13.9192C25.8468 14.0701 26.21 14.2753 26.5976 14.5343C26.9859 14.7933 27.2806 15.0686 27.4822 15.3599C27.6844 15.6513 27.8329 15.9977 27.9278 16.3989C28.0232 16.8001 28.0179 17.2343 27.912 17.7015C27.8222 18.0981 27.6767 18.4448 27.4756 18.7419C27.2748 19.0387 27.0213 19.2679 26.717 19.4297C26.4126 19.5916 26.1068 19.7235 25.8008 19.8252C25.4952 19.927 25.1218 19.9802 24.6818 19.9846C24.2418 19.9892 23.8595 19.9845 23.5353 19.9705C23.2109 19.9566 22.8128 19.9074 22.3406 19.8227C21.8684 19.7379 21.511 19.6721 21.2688 19.6246C21.0264 19.577 20.6973 19.5024 20.281 19.4007C19.8646 19.2991 19.6215 19.2401 19.5505 19.224L21.028 12.7031L21.0277 12.7031L21.0277 12.7032ZM26.6825 29.1916C26.4738 29.4869 26.2364 29.731 25.9696 29.9238C25.7025 30.1159 25.3745 30.2652 24.9861 30.3704C24.5976 30.4762 24.2274 30.5484 23.8763 30.588C23.5247 30.6279 23.1092 30.6374 22.6301 30.6185C22.15 30.5991 21.7332 30.5676 21.3778 30.5245C21.023 30.4814 20.6026 30.4158 20.1161 30.3281C19.6301 30.2399 19.2522 30.1656 18.9833 30.1047C18.7142 30.0437 18.3751 29.9628 17.966 29.8629C17.5566 29.7632 17.2957 29.7003 17.1823 29.6746L18.809 22.495C18.9222 22.5206 19.2601 22.5899 19.8228 22.7022C20.3856 22.8147 20.8435 22.9115 21.1976 22.9917C21.5516 23.0719 22.0355 23.2036 22.6491 23.3876C23.2623 23.5708 23.7719 23.753 24.1778 23.9343C24.5832 24.1156 25.017 24.3514 25.4799 24.6426C25.9423 24.9334 26.3007 25.2416 26.5546 25.567C26.8084 25.893 26.9965 26.2775 27.119 26.7222C27.242 27.1668 27.2455 27.6441 27.1299 28.154C27.0399 28.5509 26.8911 28.8962 26.6825 29.1916Z" fill="white"/>
</g>
<defs>
<clipPath id="clip0">
<rect width="36.2397" height="36.2397" fill="white" transform="translate(8.28223 0.280624) rotate(12.766)"/>
</clipPath>
</defs>
</svg>
